<svg xmlns="http://www.w3.org/2000/svg" viewBox="6290.03 7843.5 25.564 25">
  <defs>
    <style>
      .cls-1 {
        fill: #656565;
      }
    </style>
  </defs>
  <path id="Path_7" data-name="Path 7" class="cls-1" d="M9.145,4.526,7.312,2.692A13.365,13.365,0,0,0,2.03,12.756H4.594A10.828,10.828,0,0,1,9.145,4.526ZM25.03,12.756h2.564A13.447,13.447,0,0,0,22.312,2.692L20.492,4.526A10.891,10.891,0,0,1,25.03,12.756ZM22.5,13.4c0-3.936-2.1-7.231-5.769-8.1V4.423a1.923,1.923,0,0,0-3.846,0v.872C9.209,6.167,7.12,9.449,7.12,13.4v6.41L4.556,22.372v1.282H25.068V22.372L22.5,19.808ZM14.812,27.5a2.246,2.246,0,0,0,.513-.051,2.6,2.6,0,0,0,1.846-1.513,2.574,2.574,0,0,0,.192-1H12.235A2.583,2.583,0,0,0,14.812,27.5Z" transform="translate(6288 7841)"/>
</svg>
