<svg xmlns="http://www.w3.org/2000/svg" viewBox="6342 7909 22.5 25">
  <defs>
    <style>
      .cls-1 {
        fill: #656565;
      }
    </style>
  </defs>
  <path id="Path_9" data-name="Path 9" class="cls-1" d="M20.5,14.75H14.25V21H20.5ZM19.25,1V3.5h-10V1H6.75V3.5H5.5A2.489,2.489,0,0,0,3.013,6L3,23.5A2.5,2.5,0,0,0,5.5,26H23a2.507,2.507,0,0,0,2.5-2.5V6A2.507,2.507,0,0,0,23,3.5H21.75V1ZM23,23.5H5.5V9.75H23Z" transform="translate(6339 7908)"/>
</svg>
