<svg xmlns="http://www.w3.org/2000/svg" viewBox="4692 3881 30 30">
  <defs>
    <style>
      .cls-1 {
        fill: #2ecc71;
      }
    </style>
  </defs>
  <path id="dashboard" class="cls-1" d="M3,19.667H16.333V3H3ZM3,33H16.333V23H3Zm16.667,0H33V16.333H19.667Zm0-30V13H33V3Z" transform="translate(4689 3878)"/>
</svg>
