<svg xmlns="http://www.w3.org/2000/svg" viewBox="5037 8057.998 15 15">
  <defs>
    <style>
      .cls-1 {
        fill: #656565;
      }
    </style>
  </defs>
  <path id="direction" class="cls-1" d="M16.788,8.969,10.036,2.217a.747.747,0,0,0-1.058,0L2.227,8.969a.747.747,0,0,0,0,1.058l6.752,6.752a.747.747,0,0,0,1.058,0l6.752-6.752a.747.747,0,0,0,0-1.058ZM11,11.377V9.5H8v2.251H6.5v-3A.752.752,0,0,1,7.253,8H11V6.125L13.63,8.751Z" transform="translate(5034.993 8056)"/>
</svg>
