<svg id="type" xmlns="http://www.w3.org/2000/svg" viewBox="0 0 15 15">
  <defs>
    <style>
      .cls-1 {
        fill: #838383;
      }

      .cls-2 {
        fill: #fff;
      }
    </style>
  </defs>
  <path id="Path_791" data-name="Path 791" class="cls-1" d="M13,15H2a2.006,2.006,0,0,1-2-2V2A2.006,2.006,0,0,1,2,0H13a2.006,2.006,0,0,1,2,2V13A2.006,2.006,0,0,1,13,15Z"/>
  <g id="Group_1232" data-name="Group 1232">
    <path id="Path_792" data-name="Path 792" class="cls-2" d="M11,3.1V4.7H8.5v7.1h-2V4.7H4V3.1Z"/>
  </g>
</svg>
